…
We can get the data.

```r
head(result$article_title, 4)
```
```r
## $CRAWLING_TIME
## [1] "2018-05-29 23:48:25 CST"
## 
## $SUMMARY
## # A tibble: 198 x 8
##    ARTICLE_ID         URL       TITLE    PUSH  DATE  AUTHOR ORDER KEY_WORD
##    <chr>              <chr>     <chr>    <chr> <chr> <chr>  <int>    <dbl>
##  1 M.1525099000.A.08A https://~ [鍵盤] 太豪~ 10    4/30  stand~     1        0
##  2 M.1525101431.A.E3D https://~ [鍵盤] 自組~ 53    4/30  h15475     2        0
##  3 M.1525137903.A.C6F https://~ [閒聊] 鍵帽~ 11    5/01  olite      3        0
##  4 M.1525148222.A.A6C https://~ [選購] 手小~ 20    5/01  blues~     4        0
##  5 M.1525163897.A.507 https://~ [版友] 自介~ 2     5/01  RYoYo~     5        0
##  6 M.1525166596.A.D4E https://~ [鍵盤] SP~ 12    5/01  angel~     6        0
##  7 M.1525167696.A.3D8 https://~ [鍵盤] GM~ 8     5/01  angel~     7        0
##  8 M.1525168834.A.A0D https://~ [鍵盤] G8~ 20    5/01  kira3~     8        0
##  9 M.1525173210.A.18B https://~ [鍵盤] Je~ 12    5/01  angel~     9        0
## 10 M.1525185021.A.901 https://~ [鍵盤] ZO~ 16    5/01  angel~    10        0
## # ... with 188 more rows
## 
## $M.1524315117.A.42E
…
